[
    {
                "title": "China's ZTE pleads guilty to violating US sanction on Iran, N. Korea ",
                "img": "../../assets/img/noimg.png",
                "timestamp": "15 minutes ago",
                "media_displayName": "Agence France-Presse",
                "text": "Chinese telecom giant ZTEE has pleaded guilty in a US court to violating US export control by... Chinese telecom giant ZTEE has pleaded guilty in a US court to violating US export control by... Chinese telecom giant ZTEE has pleaded guilty in a US court to violating US export control by... "
            },
            {
                "title": "China's ZTE pleads guilty to violating US sanction on Iran, N. Korea ",
                "img": "../../assets/img/noimg.png",
                "timestamp": "15 minutes ago",
                "media_displayName": "Agence France-Presse",
                "text": "Chinese telecom giant ZTEE has pleaded guilty in a US court to violating US export control by... Chinese telecom giant ZTEE has pleaded guilty in a US court to violating US export control by... Chinese telecom giant ZTEE has pleaded guilty in a US court to violating US export control by... "
            },
            {
                "title": "China's ZTE pleads guilty to violating US sanction on Iran, N. Korea ",
                "img": "../../assets/img/noimg.png",
                "timestamp": "15 minutes ago",
                "media_displayName": "Agence France-Presse",
                "text": "Chinese telecom giant ZTEE has pleaded guilty in a US court to violating US export control by... Chinese telecom giant ZTEE has pleaded guilty in a US court to violating US export control by... Chinese telecom giant ZTEE has pleaded guilty in a US court to violating US export control by... "
            },
            {
                "title": "China's ZTE pleads guilty to violating US sanction on Iran, N. Korea ",
                "img": "../../assets/img/noimg.png",
                "timestamp": "15 minutes ago",
                "media_displayName": "Agence France-Presse",
                "text": "Chinese telecom giant ZTEE has pleaded guilty in a US court to violating US export control by... Chinese telecom giant ZTEE has pleaded guilty in a US court to violating US export control by... Chinese telecom giant ZTEE has pleaded guilty in a US court to violating US export control by... "
            },
            {
                "title": "China's ZTE pleads guilty to violating US sanction on Iran, N. Korea ",
                "img": "../../assets/img/noimg.png",
                "timestamp": "15 minutes ago",
                "media_displayName": "Agence France-Presse",
                "text": "Chinese telecom giant ZTEE has pleaded guilty in a US court to violating US export control by... Chinese telecom giant ZTEE has pleaded guilty in a US court to violating US export control by... Chinese telecom giant ZTEE has pleaded guilty in a US court to violating US export control by... "
            },
            {
                "title": "China's ZTE pleads guilty to violating US sanction on Iran, N. Korea ",
                "img": "../../assets/img/noimg.png",
                "timestamp": "15 minutes ago",
                "media_displayName": "Agence France-Presse",
                "text": "Chinese telecom giant ZTEE has pleaded guilty in a US court to violating US export control by... Chinese telecom giant ZTEE has pleaded guilty in a US court to violating US export control by... Chinese telecom giant ZTEE has pleaded guilty in a US court to violating US export control by... "
            },
            {
                "title": "China's ZTE pleads guilty to violating US sanction on Iran, N. Korea ",
                "img": "../../assets/img/noimg.png",
                "timestamp": "15 minutes ago",
                "media_displayName": "Agence France-Presse",
                "text": "Chinese telecom giant ZTEE has pleaded guilty in a US court to violating US export control by... Chinese telecom giant ZTEE has pleaded guilty in a US court to violating US export control by... Chinese telecom giant ZTEE has pleaded guilty in a US court to violating US export control by... "
            },
            {
                "title": "China's ZTE pleads guilty to violating US sanction on Iran, N. Korea ",
                "img": "../../assets/img/noimg.png",
                "timestamp": "15 minutes ago",
                "media_displayName": "Agence France-Presse",
                "text": "Chinese telecom giant ZTEE has pleaded guilty in a US court to violating US export control by... Chinese telecom giant ZTEE has pleaded guilty in a US court to violating US export control by... Chinese telecom giant ZTEE has pleaded guilty in a US court to violating US export control by... "
            },
            {
                "title": "China's ZTE pleads guilty to violating US sanction on Iran, N. Korea ",
                "img": "../../assets/img/noimg.png",
                "timestamp": "15 minutes ago",
                "media_displayName": "Agence France-Presse",
                "text": "Chinese telecom giant ZTEE has pleaded guilty in a US court to violating US export control by... Chinese telecom giant ZTEE has pleaded guilty in a US court to violating US export control by... Chinese telecom giant ZTEE has pleaded guilty in a US court to violating US export control by... "
            },
            {
                "title": "China's ZTE pleads guilty to violating US sanction on Iran, N. Korea ",
                "img": "../../assets/img/noimg.png",
                "timestamp": "15 minutes ago",
                "media_displayName": "Agence France-Presse",
                "text": "Chinese telecom giant ZTEE has pleaded guilty in a US court to violating US export control by... Chinese telecom giant ZTEE has pleaded guilty in a US court to violating US export control by... Chinese telecom giant ZTEE has pleaded guilty in a US court to violating US export control by... "
            },
            {
                "title": "China's ZTE pleads guilty to violating US sanction on Iran, N. Korea ",
                "img": "../../assets/img/noimg.png",
                "timestamp": "15 minutes ago",
                "media_displayName": "Agence France-Presse",
                "text": "Chinese telecom giant ZTEE has pleaded guilty in a US court to violating US export control by... Chinese telecom giant ZTEE has pleaded guilty in a US court to violating US export control by... Chinese telecom giant ZTEE has pleaded guilty in a US court to violating US export control by... "
            }
]